^C:\USERS\NGIER\DOCUMENTS\VISUAL STUDIO 2015\PROJECTS\__SEMESTR 2\_GRY\BATTLESHIPGAME\DEBUG\SOURCE.OBJ|C:\USERS\NGIER\DOCUMENTS\VISUAL STUDIO 2015\PROJECTS\__SEMESTR 2\_GRY\BATTLESHIPGAME\DEBUG\VARIABLES.OBJ
C:\WINDOWS\GLOBALIZATION\SORTING\SORTDEFAULT.NLS
C:\USERS\NGIER\DOCUMENTS\VISUAL STUDIO 2015\PROJECTS\__SEMESTR 2\_GRY\BATTLESHIPGAME\SFML\LIB\SFML-GRAPHICS-D.LIB
C:\USERS\NGIER\DOCUMENTS\VISUAL STUDIO 2015\PROJECTS\__SEMESTR 2\_GRY\BATTLESHIPGAME\SFML\LIB\SFML-AUDIO-D.LIB
C:\USERS\NGIER\DOCUMENTS\VISUAL STUDIO 2015\PROJECTS\__SEMESTR 2\_GRY\BATTLESHIPGAME\SFML\LIB\SFML-NETWORK-D.LIB
C:\USERS\NGIER\DOCUMENTS\VISUAL STUDIO 2015\PROJECTS\__SEMESTR 2\_GRY\BATTLESHIPGAME\SFML\LIB\SFML-WINDOW-D.LIB
C:\USERS\NGIER\DOCUMENTS\VISUAL STUDIO 2015\PROJECTS\__SEMESTR 2\_GRY\BATTLESHIPGAME\SFML\LIB\SFML-SYSTEM-D.LIB
C:\PROGRAM FILES (X86)\WINDOWS KITS\8.1\LIB\WINV6.3\UM\X86\KERNEL32.LIB
C:\PROGRAM FILES (X86)\WINDOWS KITS\8.1\LIB\WINV6.3\UM\X86\USER32.LIB
C:\PROGRAM FILES (X86)\WINDOWS KITS\8.1\LIB\WINV6.3\UM\X86\GDI32.LIB
C:\PROGRAM FILES (X86)\WINDOWS KITS\8.1\LIB\WINV6.3\UM\X86\WINSPOOL.LIB
C:\PROGRAM FILES (X86)\WINDOWS KITS\8.1\LIB\WINV6.3\UM\X86\COMDLG32.LIB
C:\PROGRAM FILES (X86)\WINDOWS KITS\8.1\LIB\WINV6.3\UM\X86\ADVAPI32.LIB
C:\PROGRAM FILES (X86)\WINDOWS KITS\8.1\LIB\WINV6.3\UM\X86\SHELL32.LIB
C:\PROGRAM FILES (X86)\WINDOWS KITS\8.1\LIB\WINV6.3\UM\X86\OLE32.LIB
C:\PROGRAM FILES (X86)\WINDOWS KITS\8.1\LIB\WINV6.3\UM\X86\OLEAUT32.LIB
C:\PROGRAM FILES (X86)\WINDOWS KITS\8.1\LIB\WINV6.3\UM\X86\UUID.LIB
C:\PROGRAM FILES (X86)\WINDOWS KITS\8.1\LIB\WINV6.3\UM\X86\ODBC32.LIB
C:\PROGRAM FILES (X86)\WINDOWS KITS\8.1\LIB\WINV6.3\UM\X86\ODBCCP32.LIB
C:\USERS\NGIER\DOCUMENTS\VISUAL STUDIO 2015\PROJECTS\__SEMESTR 2\_GRY\BATTLESHIPGAME\DEBUG\SOURCE.OBJ
C:\USERS\NGIER\DOCUMENTS\VISUAL STUDIO 2015\PROJECTS\__SEMESTR 2\_GRY\BATTLESHIPGAME\DEBUG\VARIABLES.OBJ
C:\WINDOWS\SYSTEM32\TZRES.DLL
C:\PROGRAM FILES (X86)\MICROSOFT VISUAL STUDIO 14.0\VC\LIB\MSVCPRTD.LIB
C:\PROGRAM FILES (X86)\MICROSOFT VISUAL STUDIO 14.0\VC\LIB\MSVCRTD.LIB
C:\PROGRAM FILES (X86)\MICROSOFT VISUAL STUDIO 14.0\VC\LIB\OLDNAMES.LIB
C:\PROGRAM FILES (X86)\MICROSOFT VISUAL STUDIO 14.0\VC\LIB\VCRUNTIMED.LIB
C:\PROGRAM FILES (X86)\WINDOWS KITS\10\LIB\10.0.10240.0\UCRT\X86\UCRTD.LIB
